<?xml version="1.0" standalone="no"?>
<!DOCTYPE svg PUBLIC "-//W3C//DTD SVG 20010904//EN"
 "http://www.w3.org/TR/2001/REC-SVG-20010904/DTD/svg10.dtd">
<svg version="1.0" xmlns="http://www.w3.org/2000/svg"
 width="513.000000pt" height="513.000000pt" viewBox="0 0 513.000000 513.000000"
 preserveAspectRatio="xMidYMid meet">
<metadata>
Created by potrace 1.11, written by Peter Selinger 2001-2013
</metadata>
<g transform="translate(0.000000,513.000000) scale(0.100000,-0.100000)"
fill="#000000" stroke="none">
<path d="M2335 5119 c-81 -8 -169 -19 -199 -25 -12 -2 -47 -9 -78 -14 -32 -6
-114 -26 -183 -45 -687 -188 -1279 -675 -1599 -1312 -63 -126 -144 -322 -151
-363 0 -3 -10 -36 -22 -75 -29 -94 -50 -190 -80 -360 -21 -122 -26 -504 -8
-646 19 -150 86 -457 105 -484 4 -5 10 -23 14 -39 14 -57 79 -213 141 -338
195 -390 497 -732 865 -977 77 -52 112 -73 234 -141 195 -108 535 -221 771
-256 22 -3 51 -8 65 -10 119 -20 470 -26 605 -11 39 4 87 9 108 12 21 2 46 6
55 9 9 3 37 8 62 11 24 4 47 8 51 10 3 2 21 7 40 10 129 22 381 112 559 200
329 162 586 364 842 663 224 259 419 645 508 1002 25 101 33 140 54 262 20
121 28 471 14 618 -50 503 -247 976 -567 1368 -118 144 -300 321 -436 424
-342 258 -789 442 -1200 493 -28 4 -64 8 -80 11 -55 8 -419 10 -490 3z"/>
</g>
</svg>
